<svg width="18" height="18" viewBox="0 0 18 18" fill="none" xmlns="http://www.w3.org/2000/svg">
<path d="M14.7855 9.00001C14.4305 9.00001 14.1426 9.28782 14.1426 9.64287V16.0713C14.1426 16.4264 13.8548 16.7142 13.4998 16.7142H1.92855C1.5735 16.7142 1.28568 16.4264 1.28568 16.0713V3.21437C1.28568 2.85933 1.5735 2.57151 1.92855 2.57151H9.64273C9.99778 2.57151 10.2856 2.2837 10.2856 1.92865C10.2856 1.5736 9.99778 1.28583 9.64273 1.28583H1.92855C0.863439 1.28583 0 2.14927 0 3.21437V16.0713C0 17.1364 0.863439 17.9999 1.92855 17.9999H13.4998C14.5649 17.9999 15.4284 17.1364 15.4284 16.0713V9.64283C15.4284 9.28782 15.1406 9.00001 14.7855 9.00001Z" fill="#335366"/>
<path d="M17.2794 0.721063C16.8178 0.259417 16.1918 0.000117942 15.539 0.000193276C14.8858 -0.00169007 14.2591 0.258061 13.7988 0.721477L5.33115 9.1884C5.26091 9.25917 5.20791 9.3452 5.17623 9.43975L3.89054 13.2968C3.77834 13.6337 3.96045 13.9977 4.29731 14.1099C4.36266 14.1317 4.4311 14.1428 4.49996 14.1428C4.56896 14.1427 4.63756 14.1317 4.7031 14.1101L8.56019 12.8244C8.65492 12.7927 8.74099 12.7395 8.81154 12.6688L17.2791 4.20122C18.2402 3.24026 18.2403 1.68213 17.2794 0.721063ZM16.3702 3.29285L8.01312 11.6499L5.51629 12.4836L6.34748 9.99002L14.7077 1.63302C15.1673 1.17431 15.9118 1.17506 16.3705 1.63467C16.5897 1.85423 16.7131 2.15146 16.7141 2.46165C16.7149 2.77349 16.591 3.07272 16.3702 3.29285Z" fill="#335366"/>
</svg>
