<svg width="18" height="18" viewBox="0 0 18 18" fill="none" xmlns="http://www.w3.org/2000/svg">
<path d="M15.3567 2.64333C13.6521 0.938742 11.3946 0 9 0C6.6054 0 4.34788 0.938742 2.64333 2.64333C0.938742 4.34788 0 6.6054 0 9C0 11.3946 0.938742 13.6521 2.64333 15.3567C4.34788 17.0613 6.6054 18 9 18C11.3946 18 13.6521 17.0613 15.3567 15.3567C17.0613 13.6521 18 11.3946 18 9C18 6.6054 17.0613 4.34788 15.3567 2.64333ZM9 16.9453C4.61893 16.9453 1.05469 13.3811 1.05469 9C1.05469 4.61893 4.61893 1.05469 9 1.05469C13.3811 1.05469 16.9453 4.61893 16.9453 9C16.9453 13.3811 13.3811 16.9453 9 16.9453Z" fill="#449E6F"/>
<path d="M10.582 7.41263C10.582 7.70387 10.8181 7.93998 11.1094 7.93998C11.4006 7.93998 11.6367 7.70387 11.6367 7.41263C11.6367 6.82862 11.3347 6.2671 10.8079 5.87209C10.4482 5.60226 10.0055 5.42202 9.52734 5.34534V4.77588C9.52734 4.48464 9.29123 4.24854 9 4.24854C8.70877 4.24854 8.47266 4.48464 8.47266 4.77588V5.34534C7.99443 5.42202 7.55177 5.60226 7.19205 5.87209C6.66534 6.2671 6.36328 6.82862 6.36328 7.41263C6.36328 7.99665 6.66534 8.55813 7.19205 8.95318C7.55181 9.223 7.99446 9.40325 8.47266 9.47992V11.5685C7.86516 11.4201 7.41797 11.0258 7.41797 10.5767C7.41797 10.2855 7.18186 10.0494 6.89062 10.0494C6.59939 10.0494 6.36328 10.2855 6.36328 10.5767C6.36328 11.1607 6.66534 11.7222 7.19205 12.1172C7.55181 12.3871 7.99446 12.5673 8.47266 12.644V13.2188C8.47266 13.51 8.70877 13.7461 9 13.7461C9.29123 13.7461 9.52734 13.51 9.52734 13.2188V12.644C10.0056 12.5673 10.4482 12.3871 10.8079 12.1172C11.3347 11.7222 11.6367 11.1607 11.6367 10.5767C11.6367 9.99268 11.3347 9.43116 10.8079 9.03615C10.4482 8.76632 10.0055 8.58608 9.52734 8.5094V6.4208C10.1348 6.5693 10.582 6.96351 10.582 7.41263ZM7.41797 7.41263C7.41797 6.96351 7.86516 6.56927 8.47266 6.4208V8.40443C7.86516 8.256 7.41797 7.86175 7.41797 7.41263ZM10.582 10.5767C10.582 11.0258 10.1348 11.4201 9.52734 11.5685V9.5849C10.1348 9.73337 10.582 10.1276 10.582 10.5767Z" fill="#449E6F"/>
</svg>
