<svg width="24" height="24" viewBox="0 0 24 24" fill="none" xmlns="http://www.w3.org/2000/svg">
<g clip-path="url(#clip0)">
<path d="M23.2969 5.64844H18.8888L16.2707 3.03019C16.1388 2.89833 15.96 2.82422 15.7735 2.82422H11.0626H0.703125C0.314812 2.82422 0 3.13903 0 3.52734V20.4727C0 20.861 0.314812 21.1758 0.703125 21.1758H23.2969C23.6852 21.1758 24 20.861 24 20.4727V6.35156C24 5.96325 23.6852 5.64844 23.2969 5.64844ZM16.9001 5.64844H14.1779L12.76 4.23047H15.4822L16.9001 5.64844ZM10.7714 4.23047L12.1892 5.64844H9.46706L8.04919 4.23047H10.7714ZM22.5938 19.7695H1.40625V4.23047H6.06052L8.67863 6.84872C8.81048 6.98058 8.98931 7.05469 9.17583 7.05469H22.5938V19.7695Z" fill="#449E6F"/>
<path d="M14.1211 14.8242V17.6484C14.1211 18.0368 14.4359 18.3516 14.8242 18.3516H20.4727C20.861 18.3516 21.1758 18.0368 21.1758 17.6484V14.8242C21.1758 14.4359 20.861 14.1211 20.4727 14.1211H14.8242C14.4359 14.1211 14.1211 14.4359 14.1211 14.8242ZM15.5273 15.5273H19.7695V16.9453H15.5273V15.5273Z" fill="#449E6F"/>
</g>
<defs>
<clipPath id="clip0">
<rect width="24" height="24" fill="white"/>
</clipPath>
</defs>
</svg>
