<svg width="246" height="228" viewBox="0 0 246 228" fill="none" xmlns="http://www.w3.org/2000/svg">
<path d="M68.5611 61.3218C77.8956 59.3027 87.1941 65.268 89.2131 74.6024L93.6612 95.0627L102.485 160.754" stroke="#3C264F" stroke-width="2" stroke-miterlimit="10"/>
<path d="M57.9005 60.0078C67.235 57.9887 76.5335 63.954 78.5526 73.2885L83.0007 93.7487" stroke="#3C264F" stroke-width="2" stroke-miterlimit="10"/>
<path d="M69.8602 91.585L65.4121 71.1248C63.393 61.7903 54.0798 55.8183 44.76 57.8441C44.76 57.8441 28.3504 58.2296 38.2812 98.8751C38.8639 101.262 40.7205 103.163 43.1169 103.689C46.0106 104.336 49.3184 102.91 49.0002 92.8565" stroke="#3C264F" stroke-width="2" stroke-miterlimit="10"/>
<path d="M46.2136 73.4773L59.8108 172.626" stroke="#3C264F" stroke-width="2" stroke-miterlimit="10"/>
<path d="M144.078 125.152C139.895 116.574 143.501 106.124 152.093 101.948L170.919 92.7786" stroke="#3C264F" stroke-width="2" stroke-miterlimit="10"/>
<path d="M171.921 106.049L153.096 115.219C144.518 119.402 140.898 129.844 145.08 138.423C145.08 138.423 149.34 154.271 186.48 135.021C188.653 133.894 190.076 131.641 190.021 129.192C189.954 126.221 187.796 123.345 178.1 126.036" stroke="#3C264F" stroke-width="2" stroke-miterlimit="10"/>
<path d="M159.913 133.306L235.697 103.477" stroke="#3C264F" stroke-width="2" stroke-miterlimit="10"/>
<path d="M71.2508 117.364C63.4698 118.597 55.0517 117.757 47.2052 112.474" stroke="#3C264F" stroke-width="2" stroke-miterlimit="10"/>
<path d="M100.174 103.727C100.174 103.727 93.6513 109.26 84.274 113.398" stroke="#3C264F" stroke-width="2" stroke-miterlimit="10"/>
<path d="M72.0643 145.534C64.8127 146.35 57.0818 145.254 49.8658 140.384" stroke="#3C264F" stroke-width="2" stroke-miterlimit="10"/>
<path d="M102.835 131.638C102.835 131.638 97.7069 135.991 89.9958 139.876" stroke="#3C264F" stroke-width="2" stroke-miterlimit="10"/>
<path d="M66.1027 128.78C65.1517 138.379 70.3077 146.749 77.6188 147.473C84.93 148.197 91.6278 141.002 92.5787 131.402C93.5297 121.803 88.3737 113.433 81.0626 112.709C73.7514 111.985 67.0536 119.18 66.1027 128.78Z" stroke="#3C264F" stroke-width="2" stroke-miterlimit="10"/>
<path d="M77.9862 129.957C77.8882 130.945 78.4153 131.807 79.1633 131.881C79.9113 131.955 80.5971 131.214 80.695 130.225C80.793 129.237 80.2659 128.375 79.5179 128.301C78.7699 128.227 78.0841 128.968 77.9862 129.957Z" stroke="#3C264F" stroke-width="2" stroke-miterlimit="10"/>
<path d="M89.8438 135.69L81.9654 131.372" stroke="#3C264F" stroke-width="2" stroke-miterlimit="10"/>
<path d="M77.9938 132.264L75.1463 135.683" stroke="#3C264F" stroke-width="2" stroke-miterlimit="10"/>
<path d="M142.593 112.819L124.654 122.234C120.929 124.182 116.259 122.705 114.28 118.931C112.301 115.156 113.734 110.466 117.459 108.517L148.182 92.3893C148.794 92.0636 149.437 91.7876 150.088 91.5331C150.582 91.3493 151.075 91.1292 151.552 90.9025L169.665 82.0835L209.929 66.3654" stroke="#3C264F" stroke-width="2" stroke-miterlimit="10"/>
</svg>
